<?xml version="1.0" encoding="utf-8"?>
<!-- Generator: Adobe Illustrator 23.0.4, SVG Export Plug-In . SVG Version: 6.00 Build 0)  -->
<svg version="1.1" xmlns="http://www.w3.org/2000/svg" xmlns:xlink="http://www.w3.org/1999/xlink" x="0px" y="0px"
	 viewBox="0 0 512 512" style="enable-background:new 0 0 512 512;" xml:space="preserve">
<style type="text/css">
	.st0{fill:none;}
</style>
<g id="Livello_2">
</g>
<g id="Livello_1">
	<g>
		<path d="M492.3,19.8C466-6.6,422.3-6.4,396,20l-76,76l-64-64l-64,64l47.9,47.9L0,384v128h128l240-240l48,48l64-64l-64-64l77-77
			C519.3,88.6,518.6,46.1,492.3,19.8z"/>
	</g>
</g>
</svg>
