<?xml version="1.0" encoding="utf-8"?>
<!-- Generator: Adobe Illustrator 23.0.4, SVG Export Plug-In . SVG Version: 6.00 Build 0)  -->
<svg version="1.1" xmlns="http://www.w3.org/2000/svg" xmlns:xlink="http://www.w3.org/1999/xlink" x="0px" y="0px"
	 viewBox="0 0 512 512" style="enable-background:new 0 0 512 512;" xml:space="preserve">
<style type="text/css">
	.st0{fill:none;}
</style>
<g id="Livello_2">
</g>
<g id="Livello_1">
	<polygon points="32,32 32,128 32,160 96,160 96,128 192,128 192,416 160,416 160,480 352,480 352,416 320,416 320,128 416,128 
		416,160 480,160 480,128 480,32 	"/>
</g>
</svg>
